{
    "version": 2,
    "builds": [
      { "src": "package.json", "use": "@vercel/static-build" }
    ],
    "routes": [
      { "src": "/(.*)", "dest": "/index.html" }
    ],
    "env": {
      "CI": "1"
    },
    "dev": {
      "port": 3000,
      "command": "npm start"
    },
    "framework": {
      "name": "create-react-app",
      "version": "17.0.2"
    }
  }
  